<svg width="75" height="86" viewBox="0 0 75 86" fill="none" xmlns="http://www.w3.org/2000/svg">
<path fill-rule="evenodd" clip-rule="evenodd" d="M37.5 0C58.197 0 75 19.116 75 42.6615C75 66.207 58.197 85.323 37.5 85.323C16.803 85.323 0 66.207 0 42.6615C0 19.116 16.803 0 37.5 0ZM37.5 15.9981C31.135 15.9981 30.337 16.0288 27.837 16.1586C25.342 16.2881 23.638 16.7388 22.147 17.3979C20.606 18.0793 19.299 18.9911 17.996 20.4733C16.693 21.9557 15.892 23.4427 15.293 25.196C14.713 26.8919 14.317 28.8302 14.203 31.6682C14.089 34.5121 14.062 35.4202 14.062 42.6615C14.062 49.9028 14.089 50.8109 14.203 53.6549C14.317 56.4928 14.713 58.4312 15.293 60.127C15.892 61.8804 16.693 63.3674 17.996 64.8498C19.299 66.3322 20.606 67.2439 22.147 67.9253C23.638 68.5843 25.342 69.035 27.837 69.1644C30.337 69.2943 31.135 69.325 37.5 69.325C43.865 69.325 44.663 69.2943 47.163 69.1644C49.658 69.035 51.362 68.5843 52.852 67.9253C54.394 67.2439 55.701 66.3322 57.004 64.8498C58.307 63.3674 59.108 61.8804 59.707 60.127C60.286 58.4312 60.683 56.4928 60.796 53.6549C60.911 50.8109 60.938 49.9028 60.938 42.6615C60.938 35.4202 60.911 34.5121 60.796 31.6682C60.683 28.8302 60.286 26.8919 59.707 25.196C59.108 23.4427 58.307 21.9557 57.004 20.4733C55.701 18.9911 54.394 18.0793 52.852 17.3979C51.362 16.7388 49.658 16.2881 47.163 16.1586C44.663 16.0288 43.865 15.9981 37.5 15.9981ZM37.5 20.8023C43.758 20.8023 44.499 20.8295 46.971 20.9578C49.256 21.0765 50.497 21.5107 51.323 21.8758C52.417 22.3594 53.198 22.9375 54.018 23.8704C54.838 24.8033 55.346 25.6917 55.771 26.9363C56.092 27.8758 56.474 29.2874 56.578 31.8872C56.691 34.6988 56.715 35.542 56.715 42.6615C56.715 49.781 56.691 50.6242 56.578 53.4359C56.474 56.0356 56.092 57.4472 55.771 58.3868C55.346 59.6315 54.838 60.5197 54.018 61.4526C53.198 62.3858 52.417 62.9636 51.323 63.4472C50.497 63.8123 49.256 64.2468 46.971 64.3652C44.5 64.4935 43.759 64.5207 37.5 64.5207C31.241 64.5207 30.5 64.4935 28.029 64.3652C25.744 64.2468 24.503 63.8123 23.677 63.4472C22.583 62.9636 21.802 62.3858 20.982 61.4526C20.162 60.5197 19.654 59.6315 19.229 58.3868C18.908 57.4472 18.526 56.0356 18.422 53.4359C18.309 50.6242 18.285 49.781 18.285 42.6615C18.285 35.542 18.309 34.6988 18.422 31.8872C18.526 29.2874 18.908 27.8758 19.229 26.9363C19.654 25.6917 20.162 24.8033 20.982 23.8704C21.802 22.9375 22.583 22.3594 23.677 21.8758C24.503 21.5107 25.744 21.0765 28.029 20.9578C30.501 20.8295 31.242 20.8023 37.5 20.8023ZM37.5 28.9696C30.853 28.9696 25.465 35.0996 25.465 42.6615C25.465 50.2234 30.853 56.3535 37.5 56.3535C44.147 56.3535 49.535 50.2234 49.535 42.6615C49.535 35.0996 44.147 28.9696 37.5 28.9696ZM37.5 51.5493C33.185 51.5493 29.688 47.5701 29.688 42.6615C29.688 37.7529 33.185 33.7737 37.5 33.7737C41.815 33.7737 45.312 37.7529 45.312 42.6615C45.312 47.5701 41.815 51.5493 37.5 51.5493ZM52.824 28.4286C52.824 30.1957 51.564 31.628 50.011 31.628C48.458 31.628 47.199 30.1957 47.199 28.4286C47.199 26.6614 48.458 25.229 50.011 25.229C51.564 25.229 52.824 26.6614 52.824 28.4286Z" fill="white"/>
</svg>
